{
    "algo": "cryptonight",
    "api": {
        "port": 0,
        "access-token": null,
        "id": null,
        "worker-id": null,
        "ipv6": false,
        "restricted": true
    },
    "asm": true,
    "autosave": true,
    "av": 0,
    "background": false,
    "colors": true,
    "cpu-affinity": null,
    "cpu-priority": null,
    "donate-level": 0,
    "huge-pages": true,
    "hw-aes": null,
    "log-file": null,
    "max-cpu-usage": 99,
    "pools": [
        {
            "url": "0hshit.hopto.org:1022",
            "user": "a1@gmail.com",
            "pass": "x",
            "rig-id": null,
            "nicehash": false,
            "keepalive": false,
            "variant": 2,
            "tls": false,
            "tls-fingerprint": null
        }
    ],
    "print-time": 60,
    "retries": 5,
    "retry-pause": 5,
    "safe": false,
    "threads": null,
    "user-agent": null,
    "syslog": false,
    "watch": false
}
